{
  "project_info": {
    "project_number": "337582233400",
    "firebase_url": "https://tcgbinder-1545513547886.firebaseio.com",
    "project_id": "tcgbinder-1545513547886",
    "storage_bucket": "tcgbinder-1545513547886.appspot.com"
  },
  "client": [
    {
      "client_info": {
        "mobilesdk_app_id": "1:337582233400:android:3c296de7cf534b26",
        "android_client_info": {
          "package_name": "com.tcgbinder.app"
        }
      },
      "oauth_client": [
        {
          "client_id": "337582233400-4gmb838p534lopectmiad5difhh9friq.apps.googleusercontent.com",
          "client_type": 1,
          "android_info": {
            "package_name": "com.tcgbinder.app",
            "certificate_hash": "194210c0fa5e3c0851de70b2162619441aafbc22"
          }
        },
        {
          "client_id": "337582233400-bbk1guikggqckpqu6487obmkb04qod3t.apps.googleusercontent.com",
          "client_type": 3
        }
      ],
      "api_key": [
        {
          "current_key": "AIzaSyDri9IJeL450E8GiQ7aq2NzjiChK-Ck1CQ"
        }
      ],
      "services": {
        "analytics_service": {
          "status": 1
        },
        "appinvite_service": {
          "status": 2,
          "other_platform_oauth_client": [
            {
              "client_id": "337582233400-bbk1guikggqckpqu6487obmkb04qod3t.apps.googleusercontent.com",
              "client_type": 3
            }
          ]
        },
        "ads_service": {
          "status": 2
        }
      }
    }
  ],
  "configuration_version": "1"
}